misc/ALL0006/F0006CH1.CSV

Record Length,2.500000e+03,,  -0.225000000000,  -1.58000,
Sample Interval,1.000000e-04,,  -0.224900000000,  -1.60000,
Trigger Point,2.250000000000e+03,,  -0.224800000000,  -1.62000,
,,,  -0.224700000000,  -1.62000,
,,,  -0.224600000000,  -1.62000,
,,,  -0.224500000000,  -1.62000,
Source,CH1,,  -0.224400000000,  -1.62000,
Vertical Units,V,,  -0.224300000000,  -1.60000,
Vertical Scale,5.000000e-01,,  -0.224200000000,  -1.62000,
Vertical Offset,1.580000e+00,,  -0.224100000000,  -1.60000,
Horizontal Units,s,,  -0.224000000000,  -1.62000,
Horizontal Scale,2.500000e-02,,  -0.223900000000,  -1.62000,
Pt Fmt,Y,,  -0.223800000000,  -1.62000,
Yzero,0.000000e+00,,  -0.223700000000,  -1.60000,
Probe Atten,1.000000e+01,,  -0.223600000000,  -1.62000,
Model Number,TBS1202B-EDU,,  -0.223500000000,  -1.60000,
Serial Number,C011246,,  -0.223400000000,  -1.62000,
Firmware Version,FV:v4.0,,  -0.223300000000,  -1.62000,
,,,-00.223200000000,  -1.64000,
,,,-00.223100000000,  -1.62000,
,,,-00.223000000000,  -1.62000,
,,,-00.222900000000,  -1.62000,
,,,-00.222800000000,  -1.62000,
,,,-00.222700000000,  -1.60000,
,,,-00.222600000000,  -1.60000,
,,,-00.222500000000,  -1.62000,
,,,-00.222400000000,  -1.64000,
,,,-00.222300000000,  -1.62000,
,,,-00.222200000000,  -1.60000,
,,,-00.222100000000,  -1.60000,
,,,-00.222000000000,  -1.60000,
,,,-00.221900000000,  -1.62000,
,,,-00.221800000000,  -1.64000,
,,,-00.221700000000,  -1.62000,
,,,-00.221600000000,  -1.60000,
,,,-00.221500000000,  -1.64000,
,,,-00.221400000000,  -1.62000,
,,,-00.221300000000,  -1.60000,
,,,-00.221200000000,  -1.62000,
,,,-00.221100000000,  -1.60000,
,,,-00.221000000000,  -1.60000,
,,,-00.220900000000,  -1.60000,
,,,-00.220800000000,  -1.60000,
,,,-00.220700000000,  -1.60000,
,,,-00.220600000000,  -1.60000,
,,,-00.220500000000,  -1.60000,
,,,-00.220400000000,  -1.60000,
,,,-00.220300000000,  -1.60000,
,,,-00.220200000000,  -1.60000,
,,,-00.220100000000,  -1.60000,
,,,-00.220000000000,  -1.60000,
,,,-00.219900000000,  -1.60000,
,,,-00.219800000000,  -1.60000,
,,,-00.219700000000,  -1.60000,
,,,-00.219600000000,  -1.60000,
,,,-00.219500000000,  -1.60000,
,,,-00.219400000000,  -1.60000,
,,,-00.219300000000,  -1.62000,
,,,-00.219200000000,  -1.60000,
,,,-00.219100000000,  -1.62000,
,,,-00.219000000000,  -1.62000,
,,,-00.218900000000,  -1.60000,
,,,-00.218800000000,  -1.62000,
,,,-00.218700000000,  -1.62000,
,,,-00.218600000000,  -1.60000,
,,,-00.218500000000,  -1.62000,
,,,-00.218400000000,  -1.64000,
,,,-00.218300000000,  -1.62000,
,,,-00.218200000000,  -1.60000,
,,,-00.218100000000,  -1.62000,
,,,-00.218000000000,  -1.62000,
,,,-00.217900000000,  -1.60000,
,,,-00.217800000000,  -1.62000,
,,,-00.217700000000,  -1.60000,
,,,-00.217600000000,  -1.62000,
,,,-00.217500000000,  -1.62000,
,,,-00.217400000000,  -1.62000,
,,,-00.217300000000,  -1.62000,
,,,-00.217200000000,  -1.60000,
,,,-00.217100000000,  -1.60000,
,,,-00.217000000000,  -1.60000,
,,,-00.216900000000,  -1.62000,
,,,-00.216800000000,  -1.62000,
,,,-00.216700000000,  -1.62000,
,,,-00.216600000000,  -1.62000,
,,,-00.216500000000,  -1.62000,
,,,-00.216400000000,  -1.62000,
,,,-00.216300000000,  -1.62000,
,,,-00.216200000000,  -1.60000,
,,,-00.216100000000,  -1.62000,
,,,-00.216000000000,  -1.60000,
,,,-00.215900000000,  -1.62000,
,,,-00.215800000000,  -1.62000,
,,,-00.215700000000,  -1.60000,
,,,-00.215600000000,  -1.60000,
,,,-00.215500000000,  -1.60000,
,,,-00.215400000000,  -1.60000,
,,,-00.215300000000,  -1.62000,
,,,-00.215200000000,  -1.64000,
,,,-00.215100000000,  -1.60000,
,,,-00.215000000000,  -1.60000,
,,,-00.214900000000,  -1.60000,
,,,-00.214800000000,  -1.60000,
,,,-00.214700000000,  -1.60000,
,,,-00.214600000000,  -1.60000,
,,,-00.214500000000,  -1.60000,
,,,-00.214400000000,  -1.60000,
,,,-00.214300000000,  -1.62000,
,,,-00.214200000000,  -1.62000,
,,,-00.214100000000,  -1.60000,
,,,-00.214000000000,  -1.60000,
,,,-00.213900000000,  -1.62000,
,,,-00.213800000000,  -1.62000,
,,,-00.213700000000,  -1.62000,
,,,-00.213600000000,  -1.62000,
,,,-00.213500000000,  -1.62000,
,,,-00.213400000000,  -1.62000,
,,,-00.213300000000,  -1.62000,
,,,-00.213200000000,  -1.60000,
,,,-00.213100000000,  -1.60000,
,,,-00.213000000000,  -1.62000,
,,,-00.212900000000,  -1.62000,
,,,-00.212800000000,  -1.60000,
,,,-00.212700000000,  -1.60000,
,,,-00.212600000000,  -1.62000,
,,,-00.212500000000,  -1.62000,
,,,-00.212400000000,  -1.60000,
,,,-00.212300000000,  -1.62000,
,,,-00.212200000000,  -1.62000,
,,,-00.212100000000,  -1.60000,
,,,-00.212000000000,  -1.62000,
,,,-00.211900000000,  -1.64000,
,,,-00.211800000000,  -1.62000,
,,,-00.211700000000,  -1.62000,
,,,-00.211600000000,  -1.60000,
,,,-00.211500000000,  -1.60000,
,,,-00.211400000000,  -1.60000,
,,,-00.211300000000,  -1.60000,
,,,-00.211200000000,  -1.62000,
,,,-00.211100000000,  -1.60000,
,,,-00.211000000000,  -1.60000,
,,,-00.210900000000,  -1.60000,
,,,-00.210800000000,  -1.60000,
,,,-00.210700000000,  -1.62000,
,,,-00.210600000000,  -1.60000,
,,,-00.210500000000,  -1.64000,
,,,-00.210400000000,  -1.62000,
,,,-00.210300000000,  -1.60000,
,,,-00.210200000000,  -1.62000,
,,,-00.210100000000,  -1.60000,
,,,-00.210000000000,  -1.62000,
,,,-00.209900000000,  -1.60000,
,,,-00.209800000000,  -1.62000,
,,,-00.209700000000,  -1.62000,
,,,-00.209600000000,  -1.60000,
,,,-00.209500000000,  -1.60000,
,,,-00.209400000000,  -1.60000,
,,,-00.209300000000,  -1.60000,
,,,-00.209200000000,  -1.62000,
,,,-00.209100000000,  -1.62000,
,,,-00.209000000000,  -1.64000,
,,,-00.208900000000,  -1.62000,
,,,-00.208800000000,  -1.60000,
,,,-00.208700000000,  -1.60000,
,,,-00.208600000000,  -1.60000,
,,,-00.208500000000,  -1.62000,
,,,-00.208400000000,  -1.62000,
,,,-00.208300000000,  -1.60000,
,,,-00.208200000000,  -1.60000,
,,,-00.208100000000,  -1.62000,
,,,-00.208000000000,  -1.62000,
,,,-00.207900000000,  -1.62000,
,,,-00.207800000000,  -1.62000,
,,,-00.207700000000,  -1.62000,
,,,-00.207600000000,  -1.62000,
,,,-00.207500000000,  -1.62000,
,,,-00.207400000000,  -1.62000,
,,,-00.207300000000,  -1.62000,
,,,-00.207200000000,  -1.62000,
,,,-00.207100000000,  -1.62000,
,,,-00.207000000000,  -1.60000,
,,,-00.206900000000,  -1.62000,
,,,-00.206800000000,  -1.60000,
,,,-00.206700000000,  -1.60000,
,,,-00.206600000000,  -1.60000,
,,,-00.206500000000,  -1.60000,
,,,-00.206400000000,  -1.60000,
,,,-00.206300000000,  -1.60000,
,,,-00.206200000000,  -1.62000,
,,,-00.206100000000,  -1.60000,
,,,-00.206000000000,  -1.62000,
,,,-00.205900000000,  -1.60000,
,,,-00.205800000000,  -1.60000,
,,,-00.205700000000,  -1.58000,
,,,-00.205600000000,  -1.60000,
,,,-00.205500000000,  -1.60000,
,,,-00.205400000000,  -1.60000,
,,,-00.205300000000,  -1.62000,
,,,-00.205200000000,  -1.62000,
,,,-00.205100000000,  -1.62000,
,,,-00.205000000000,  -1.62000,
,,,-00.204900000000,  -1.62000,
,,,-00.204800000000,  -1.58000,
,,,-00.204700000000,  -1.62000,
,,,-00.204600000000,  -1.60000,
,,,-00.204500000000,  -1.60000,
,,,-00.204400000000,  -1.60000,
,,,-00.204300000000,  -1.60000,
,,,-00.204200000000,  -1.62000,
,,,-00.204100000000,  -1.62000,
,,,-00.204000000000,  -1.64000,
,,,-00.203900000000,  -1.60000,
,,,-00.203800000000,  -1.60000,
,,,-00.203700000000,  -1.62000,
,,,-00.203600000000,  -1.60000,
,,,-00.203500000000,  -1.62000,
,,,-00.203400000000,  -1.60000,
,,,-00.203300000000,  -1.60000,
,,,-00.203200000000,  -1.62000,
,,,-00.203100000000,  -1.60000,
,,,-00.203000000000,  -1.64000,
,,,-00.202900000000,  -1.64000,
,,,-00.202800000000,  -1.62000,
,,,-00.202700000000,  -1.60000,
,,,-00.202600000000,  -1.62000,
,,,-00.202500000000,  -1.62000,
,,,-00.202400000000,  -1.62000,
,,,-00.202300000000,  -1.60000,
,,,-00.202200000000,  -1.60000,
,,,-00.202100000000,  -1.62000,
,,,-00.202000000000,  -1.60000,
,,,-00.201900000000,  -1.60000,
,,,-00.201800000000,  -1.62000,
,,,-00.201700000000,  -1.60000,
,,,-00.201600000000,  -1.64000,
,,,-00.201500000000,  -1.64000,
,,,-00.201400000000,  -1.60000,
,,,-00.201300000000,  -1.60000,
,,,-00.201200000000,  -1.62000,
,,,-00.201100000000,  -1.60000,
,,,-00.201000000000,  -1.64000,
,,,-00.200900000000,  -1.62000,
,,,-00.200800000000,  -1.60000,
,,,-00.200700000000,  -1.60000,
,,,-00.200600000000,  -1.62000,
,,,-00.200500000000,  -1.62000,
,,,-00.200400000000,  -1.60000,
,,,-00.200300000000,  -1.62000,
,,,-00.200200000000,  -1.62000,
,,,-00.200100000000,  -1.60000,
,,,-00.200000000000,  -1.60000,
,,,-00.199900000000,  -1.62000,
,,,-00.199800000000,  -1.62000,
,,,-00.199700000000,  -1.60000,
,,,-00.199600000000,  -1.60000,
,,,-00.199500000000,  -1.62000,
,,,-00.199400000000,  -1.62000,
,,,-00.199300000000,  -1.64000,
,,,-00.199200000000,  -1.62000,
,,,-00.199100000000,  -1.62000,
,,,-00.199000000000,  -1.62000,
,,,-00.198900000000,  -1.60000,
,,,-00.198800000000,  -1.62000,
,,,-00.198700000000,  -1.62000,
,,,-00.198600000000,  -1.62000,
,,,-00.198500000000,  -1.58000,
,,,-00.198400000000,  -1.62000,
,,,-00.198300000000,  -1.60000,
,,,-00.198200000000,  -1.62000,
,,,-00.198100000000,  -1.60000,
,,,-00.198000000000,  -1.62000,
,,,-00.197900000000,  -1.62000,
,,,-00.197800000000,  -1.62000,
,,,-00.197700000000,  -1.62000,
,,,-00.197600000000,  -1.62000,
,,,-00.197500000000,  -1.60000,
,,,-00.197400000000,  -1.60000,
,,,-00.197300000000,  -1.60000,
,,,-00.197200000000,  -1.64000,
,,,-00.197100000000,  -1.62000,
,,,-00.197000000000,  -1.62000,
,,,-00.196900000000,  -1.60000,
,,,-00.196800000000,  -1.60000,
,,,-00.196700000000,  -1.62000,
,,,-00.196600000000,  -1.60000,
,,,-00.196500000000,  -1.62000,
,,,-00.196400000000,  -1.62000,
,,,-00.196300000000,  -1.62000,
,,,-00.196200000000,  -1.60000,
,,,-00.196100000000,  -1.60000,
,,,-00.196000000000,  -1.62000,
,,,-00.195900000000,  -1.62000,
,,,-00.195800000000,  -1.60000,
,,,-00.195700000000,  -1.58000,
,,,-00.195600000000,  -1.60000,
,,,-00.195500000000,  -1.62000,
,,,-00.195400000000,  -1.62000,
,,,-00.195300000000,  -1.62000,
,,,-00.195200000000,  -1.60000,
,,,-00.195100000000,  -1.60000,
,,,-00.195000000000,  -1.62000,
,,,-00.194900000000,  -1.60000,
,,,-00.194800000000,  -1.62000,
,,,-00.194700000000,  -1.62000,
,,,-00.194600000000,  -1.60000,
,,,-00.194500000000,  -1.62000,
,,,-00.194400000000,  -1.62000,
,,,-00.194300000000,  -1.62000,
,,,-00.194200000000,  -1.62000,
,,,-00.194100000000,  -1.62000,
,,,-00.194000000000,  -1.62000,
,,,-00.193900000000,  -1.60000,
,,,-00.193800000000,  -1.60000,
,,,-00.193700000000,  -1.60000,
,,,-00.193600000000,  -1.60000,
,,,-00.193500000000,  -1.60000,
,,,-00.193400000000,  -1.62000,
,,,-00.193300000000,  -1.60000,
,,,-00.193200000000,  -1.62000,
,,,-00.193100000000,  -1.62000,
,,,-00.193000000000,  -1.62000,
,,,-00.192900000000,  -1.64000,
,,,-00.192800000000,  -1.60000,
,,,-00.192700000000,  -1.64000,
,,,-00.192600000000,  -1.64000,
,,,-00.192500000000,  -1.62000,
,,,-00.192400000000,  -1.60000,
,,,-00.192300000000,  -1.60000,
,,,-00.192200000000,  -1.64000,
,,,-00.192100000000,  -1.60000,
,,,-00.192000000000,  -1.62000,
,,,-00.191900000000,  -1.62000,
,,,-00.191800000000,  -1.62000,
,,,-00.191700000000,  -1.60000,
,,,-00.191600000000,  -1.62000,
,,,-00.191500000000,  -1.60000,
,,,-00.191400000000,  -1.62000,
,,,-00.191300000000,  -1.62000,
,,,-00.191200000000,  -1.60000,
,,,-00.191100000000,  -1.60000,
,,,-00.191000000000,  -1.60000,
,,,-00.190900000000,  -1.62000,
,,,-00.190800000000,  -1.60000,
,,,-00.190700000000,  -1.62000,
,,,-00.190600000000,  -1.60000,
,,,-00.190500000000,  -1.62000,
,,,-00.190400000000,  -1.60000,
,,,-00.190300000000,  -1.62000,
,,,-00.190200000000,  -1.62000,
,,,-00.190100000000,  -1.62000,
,,,-00.190000000000,  -1.62000,
,,,-00.189900000000,  -1.60000,
,,,-00.189800000000,  -1.62000,
,,,-00.189700000000,  -1.60000,
,,,-00.189600000000,  -1.62000,
,,,-00.189500000000,  -1.60000,
,,,-00.189400000000,  -1.62000,
,,,-00.189300000000,  -1.60000,
,,,-00.189200000000,  -1.62000,
,,,-00.189100000000,  -1.60000,
,,,-00.189000000000,  -1.62000,
,,,-00.188900000000,  -1.62000,
,,,-00.188800000000,  -1.60000,
,,,-00.188700000000,  -1.60000,
,,,-00.188600000000,  -1.60000,
,,,-00.188500000000,  -1.60000,
,,,-00.188400000000,  -1.62000,
,,,-00.188300000000,  -1.62000,
,,,-00.188200000000,  -1.60000,
,,,-00.188100000000,  -1.62000,
,,,-00.188000000000,  -1.62000,
,,,-00.187900000000,  -1.60000,
,,,-00.187800000000,  -1.60000,
,,,-00.187700000000,  -1.60000,
,,,-00.187600000000,  -1.62000,
,,,-00.187500000000,  -1.62000,
,,,-00.187400000000,  -1.62000,
,,,-00.187300000000,  -1.60000,
,,,-00.187200000000,  -1.60000,
,,,-00.187100000000,  -1.62000,
,,,-00.187000000000,  -1.62000,
,,,-00.186900000000,  -1.60000,
,,,-00.186800000000,  -1.62000,
,,,-00.186700000000,  -1.60000,
,,,-00.186600000000,  -1.64000,
,,,-00.186500000000,  -1.62000,
,,,-00.186400000000,  -1.62000,
,,,-00.186300000000,  -1.62000,
,,,-00.186200000000,  -1.58000,
,,,-00.186100000000,  -1.60000,
,,,-00.186000000000,  -1.62000,
,,,-00.185900000000,  -1.60000,
,,,-00.185800000000,  -1.62000,
,,,-00.185700000000,  -1.60000,
,,,-00.185600000000,  -1.62000,
,,,-00.185500000000,  -1.60000,
,,,-00.185400000000,  -1.58000,
,,,-00.185300000000,  -1.60000,
,,,-00.185200000000,  -1.60000,
,,,-00.185100000000,  -1.60000,
,,,-00.185000000000,  -1.60000,
,,,-00.184900000000,  -1.60000,
,,,-00.184800000000,  -1.60000,
,,,-00.184700000000,  -1.62000,
,,,-00.184600000000,  -1.62000,
,,,-00.184500000000,  -1.64000,
,,,-00.184400000000,  -1.62000,
,,,-00.184300000000,  -1.64000,
,,,-00.184200000000,  -1.62000,
,,,-00.184100000000,  -1.62000,
,,,-00.184000000000,  -1.62000,
,,,-00.183900000000,  -1.62000,
,,,-00.183800000000,  -1.64000,
,,,-00.183700000000,  -1.60000,
,,,-00.183600000000,  -1.62000,
,,,-00.183500000000,  -1.60000,
,,,-00.183400000000,  -1.62000,
,,,-00.183300000000,  -1.60000,
,,,-00.183200000000,  -1.60000,
,,,-00.183100000000,  -1.60000,
,,,-00.183000000000,  -1.64000,
,,,-00.182900000000,  -1.60000,
,,,-00.182800000000,  -1.62000,
,,,-00.182700000000,  -1.62000,
,,,-00.182600000000,  -1.62000,
,,,-00.182500000000,  -1.60000,
,,,-00.182400000000,  -1.60000,
,,,-00.182300000000,  -1.60000,
,,,-00.182200000000,  -1.60000,
,,,-00.182100000000,  -1.60000,
,,,-00.182000000000,  -1.60000,
,,,-00.181900000000,  -1.60000,
,,,-00.181800000000,  -1.60000,
,,,-00.181700000000,  -1.60000,
,,,-00.181600000000,  -1.60000,
,,,-00.181500000000,  -1.60000,
,,,-00.181400000000,  -1.62000,
,,,-00.181300000000,  -1.60000,
,,,-00.181200000000,  -1.62000,
,,,-00.181100000000,  -1.62000,
,,,-00.181000000000,  -1.62000,
,,,-00.180900000000,  -1.62000,
,,,-00.180800000000,  -1.62000,
,,,-00.180700000000,  -1.62000,
,,,-00.180600000000,  -1.62000,
,,,-00.180500000000,  -1.62000,
,,,-00.180400000000,  -1.62000,
,,,-00.180300000000,  -1.62000,
,,,-00.180200000000,  -1.62000,
,,,-00.180100000000,  -1.62000,
,,,-00.180000000000,  -1.62000,
,,,-00.179900000000,  -1.62000,
,,,-00.179800000000,  -1.62000,
,,,-00.179700000000,  -1.60000,
,,,-00.179600000000,  -1.62000,
,,,-00.179500000000,  -1.62000,
,,,-00.179400000000,  -1.60000,
,,,-00.179300000000,  -1.62000,
,,,-00.179200000000,  -1.62000,
,,,-00.179100000000,  -1.60000,
,,,-00.179000000000,  -1.62000,
,,,-00.178900000000,  -1.60000,
,,,-00.178800000000,  -1.60000,
,,,-00.178700000000,  -1.60000,
,,,-00.178600000000,  -1.62000,
,,,-00.178500000000,  -1.64000,
,,,-00.178400000000,  -1.60000,
,,,-00.178300000000,  -1.62000,
,,,-00.178200000000,  -1.62000,
,,,-00.178100000000,  -1.60000,
,,,-00.178000000000,  -1.62000,
,,,-00.177900000000,  -1.60000,
,,,-00.177800000000,  -1.62000,
,,,-00.177700000000,  -1.60000,
,,,-00.177600000000,  -1.60000,
,,,-00.177500000000,  -1.60000,
,,,-00.177400000000,  -1.62000,
,,,-00.177300000000,  -1.60000,
,,,-00.177200000000,  -1.60000,
,,,-00.177100000000,  -1.60000,
,,,-00.177000000000,  -1.62000,
,,,-00.176900000000,  -1.62000,
,,,-00.176800000000,  -1.60000,
,,,-00.176700000000,  -1.58000,
,,,-00.176600000000,  -1.60000,
,,,-00.176500000000,  -1.60000,
,,,-00.176400000000,  -1.34000,
,,,-00.176300000000,  -1.62000,
,,,-00.176200000000,  -1.62000,
,,,-00.176100000000,  -1.82000,
,,,-00.176000000000,  -1.62000,
,,,-00.175900000000,  -1.62000,
,,,-00.175800000000,  -2.56000,
,,,-00.175700000000,  -1.62000,
,,,-00.175600000000,  -1.60000,
,,,-00.175500000000,  -0.66000,
,,,-00.175400000000,  -1.60000,
,,,-00.175300000000,  -1.64000,
,,,-00.175200000000,  -0.94000,
,,,-00.175100000000,  -1.62000,
,,,-00.175000000000,  -1.60000,
,,,-00.174900000000,  -2.64000,
,,,-00.174800000000,  -1.60000,
,,,-00.174700000000,  -1.62000,
,,,-00.174600000000,  -2.24000,
,,,-00.174500000000,  -1.60000,
,,,-00.174400000000,  -1.60000,
,,,-00.174300000000,  -1.52000,
,,,-00.174200000000,  -1.62000,
,,,-00.174100000000,  -1.62000,
,,,-00.174000000000,  -1.86000,
,,,-00.173900000000,  -1.62000,
,,,-00.173800000000,  -1.62000,
,,,-00.173700000000,  -0.90000,
,,,-00.173600000000,  -1.58000,
,,,-00.173500000000,  -1.60000,
,,,-00.173400000000,  -1.26000,
,,,-00.173300000000,  -1.60000,
,,,-00.173200000000,  -1.62000,
,,,-00.173100000000,  -2.90000,
,,,-00.173000000000,  -1.62000,
,,,-00.172900000000,  -1.62000,
,,,-00.172800000000,  -1.46000,
,,,-00.172700000000,  -1.62000,
,,,-00.172600000000,  -1.62000,
,,,-00.172500000000,  -0.70000,
,,,-00.172400000000,  -1.60000,
,,,-00.172300000000,  -1.62000,
,,,-00.172200000000,  -1.94000,
,,,-00.172100000000,  -1.62000,
,,,-00.172000000000,  -1.64000,
,,,-00.171900000000,  -1.60000,
,,,-00.171800000000,  -1.62000,
,,,-00.171700000000,  -1.62000,
,,,-00.171600000000,  -1.60000,
,,,-00.171500000000,  -1.60000,
,,,-00.171400000000,  -1.62000,
,,,-00.171300000000,  -1.60000,
,,,-00.171200000000,  -1.62000,
,,,-00.171100000000,  -1.60000,
,,,-00.171000000000,  -1.62000,
,,,-00.170900000000,  -1.60000,
,,,-00.170800000000,  -1.60000,
,,,-00.170700000000,  -1.62000,
,,,-00.170600000000,  -1.62000,
,,,-00.170500000000,  -1.62000,
,,,-00.170400000000,  -1.62000,
,,,-00.170300000000,  -1.64000,
,,,-00.170200000000,  -1.60000,
,,,-00.170100000000,  -1.60000,
,,,-00.170000000000,  -1.62000,
,,,-00.169900000000,  -1.60000,
,,,-00.169800000000,  -1.60000,
,,,-00.169700000000,  -1.60000,
,,,-00.169600000000,  -1.62000,
,,,-00.169500000000,  -1.62000,
,,,-00.169400000000,  -1.62000,
,,,-00.169300000000,  -1.62000,
,,,-00.169200000000,  -1.60000,
,,,-00.169100000000,  -1.60000,
,,,-00.169000000000,  -1.62000,
,,,-00.168900000000,  -1.64000,
,,,-00.168800000000,  -1.60000,
,,,-00.168700000000,  -1.60000,
,,,-00.168600000000,  -1.60000,
,,,-00.168500000000,  -1.62000,
,,,-00.168400000000,  -1.62000,
,,,-00.168300000000,  -1.60000,
,,,-00.168200000000,  -1.60000,
,,,-00.168100000000,  -1.64000,
,,,-00.168000000000,  -1.60000,
,,,-00.167900000000,  -1.60000,
,,,-00.167800000000,  -1.60000,
,,,-00.167700000000,  -1.60000,
,,,-00.167600000000,  -1.62000,
,,,-00.167500000000,  -1.64000,
,,,-00.167400000000,  -1.60000,
,,,-00.167300000000,  -1.60000,
,,,-00.167200000000,  -1.58000,
,,,-00.167100000000,  -1.62000,
,,,-00.167000000000,  -1.62000,
,,,-00.166900000000,  -1.62000,
,,,-00.166800000000,  -1.62000,
,,,-00.166700000000,  -1.60000,
,,,-00.166600000000,  -1.62000,
,,,-00.166500000000,  -1.60000,
,,,-00.166400000000,  -1.62000,
,,,-00.166300000000,  -1.60000,
,,,-00.166200000000,  -1.62000,
,,,-00.166100000000,  -1.64000,
,,,-00.166000000000,  -1.60000,
,,,-00.165900000000,  -1.62000,
,,,-00.165800000000,  -1.60000,
,,,-00.165700000000,  -1.64000,
,,,-00.165600000000,  -1.60000,
,,,-00.165500000000,  -1.62000,
,,,-00.165400000000,  -1.62000,
,,,-00.165300000000,  -1.60000,
,,,-00.165200000000,  -1.60000,
,,,-00.165100000000,  -1.64000,
,,,-00.165000000000,  -1.62000,
,,,-00.164900000000,  -1.60000,
,,,-00.164800000000,  -1.62000,
,,,-00.164700000000,  -1.60000,
,,,-00.164600000000,  -1.62000,
,,,-00.164500000000,  -1.62000,
,,,-00.164400000000,  -1.60000,
,,,-00.164300000000,  -1.60000,
,,,-00.164200000000,  -1.60000,
,,,-00.164100000000,  -1.62000,
,,,-00.164000000000,  -1.60000,
,,,-00.163900000000,  -1.62000,
,,,-00.163800000000,  -1.60000,
,,,-00.163700000000,  -1.62000,
